[
    {
        "title": "Adidas Yeezy Boost 500",
        "price": 2340,
        "url": "../src/img/photo_2021-07-28_21-21-04.jpg",
        "article": 911,
        "color": "enflame"
    },
    {
        "title": "Adidas Niteball",
        "price": 2000,
        "url": "../src/img/photo_2021-08-10_20-37-15.jpg",
        "article": 762,
        "color": "white/purple"
    },
    {
        "title": "Adidas Yeezy Boost 700",
        "price": 2050,
        "url": "../src/img/photo_2023-05-08_15-47-04.jpg",
        "article": 1327,
        "color": "black"
    },
    {
        "title": "Adidas Forum 84 Low",
        "price": 1900,
        "url": "../src/img/photo_2023-07-19_17-19-37.jpg",
        "article": 1417,
        "color": "brown"
    },
    {
        "title": "Adidas Samba x Wales Bonner",
        "price": 1850,
        "url": "../src/img/photo_2023-07-03_14-16-08.jpg",
        "article": 1377,
        "color": "white/green"
    },
    {
        "title": "Nike Air Zoom Pegasus",
        "price": 2000,
        "url": "../src/img/photo_2023-07-24_20-29-21.jpg",
        "article": 1464,
        "color": "green"
    },
    {
        "title": "Nike SB Dunk",
        "price": 1850,
        "url": "../src/img/photo_2023-04-22_20-11-18.jpg",
        "article": 1188,
        "color": "haki"
    },
    {
        "title": "Nike Air Max",
        "price": 1750,
        "url": "../src/img/photo_2023-07-02_13-36-50.jpg",
        "article": 1339,
        "color": "black"
    },
    {
        "title": "Air Jordan Why Not",
        "price": 2150,
        "url": "../src/img/photo_2023-05-26_11-13-52.jpg",
        "article": 1268,
        "color": "gray"
    },
    {
        "title": "Air Jordan Retro 4",
        "price": 2300,
        "url": "../src/img/photo_2023-04-24_11-42-49.jpg",
        "article": 1261,
        "color": "yellow"
    }
]
